(module Converter_DCDC_Murata_OKL-Tx-W12_HandSolder (layer F.Cu) (tedit 60CBBA3B)
  (descr https://www.murata.com/-/media/webrenewal/products/power/datasheet/okl-t6-w12.ashx)
  (tags "dc-dc murata buck lga")
  (attr smd)
  (fp_text reference REF** (at 0 -8) (layer F.SilkS)
    (effects (font (size 1 1) (thickness 0.15)))
  )
  (fp_text value Converter_DCDC_Murata_OKL-T/x-W12 (at 0 8) (layer F.Fab)
    (effects (font (size 1 1) (thickness 0.15)))
  )
  (fp_line (start -5.75 -6.55) (end -6.55 -6.55) (layer F.SilkS) (width 0.12))
  (fp_line (start -6.55 -6.55) (end -6.55 -5.75) (layer F.SilkS) (width 0.12))
  (fp_line (start 6.35 -6.35) (end 6.35 -5.9) (layer F.SilkS) (width 0.12))
  (fp_line (start 6.35 6.35) (end 3.5 6.35) (layer F.SilkS) (width 0.12))
  (fp_line (start -6.35 -5.7) (end -6.35 -6.35) (layer F.SilkS) (width 0.12))
  (fp_line (start -6.35 -6.35) (end -3.4 -6.35) (layer F.SilkS) (width 0.12))
  (fp_line (start 6.095 -6.095) (end 6.095 6.095) (layer F.Fab) (width 0.1))
  (fp_line (start 6.095 6.095) (end -6.095 6.095) (layer F.Fab) (width 0.1))
  (fp_line (start -6.095 6.095) (end -6.095 -5.095) (layer F.Fab) (width 0.1))
  (fp_line (start -6.095 -5.095) (end -5.095 -6.095) (layer F.Fab) (width 0.1))
  (fp_line (start -5.095 -6.095) (end 6.095 -6.095) (layer F.Fab) (width 0.1))
  (fp_line (start -7.1 -7.1) (end 7.1 -7.1) (layer F.CrtYd) (width 0.05))
  (fp_line (start -7.1 -7.1) (end -7.1 7.1) (layer F.CrtYd) (width 0.05))
  (fp_line (start 7.1 7.1) (end 7.1 -7.1) (layer F.CrtYd) (width 0.05))
  (fp_line (start 7.1 7.1) (end -7.1 7.1) (layer F.CrtYd) (width 0.05))
  (fp_text user %R (at 0 0) (layer F.Fab)
    (effects (font (size 1 1) (thickness 0.15)))
  )
  (fp_line (start 3.6 -6.35) (end 6.35 -6.35) (layer F.SilkS) (width 0.12))
  (fp_line (start 6.35 6.35) (end 6.35 5.9) (layer F.SilkS) (width 0.12))
  (fp_line (start -6.35 6.35) (end -6.35 5.9) (layer F.SilkS) (width 0.12))
  (fp_line (start -3.5 6.35) (end -6.35 6.35) (layer F.SilkS) (width 0.12))
  (pad 2 smd custom (at -3.43 -4.57) (size 4.2 1.9) (layers F.Cu F.Paste F.Mask)
    (options (clearance outline) (anchor rect))
    (primitives
      (gr_poly (pts
         (xy 0.63 0.57) (xy 0.63 -2.33) (xy 1.63 -2.33) (xy 1.63 0.57)) (width 0.2))
      (gr_poly (pts
         (xy -0.57 0.47) (xy -3.47 0.47) (xy -3.47 -0.53) (xy -0.57 -0.53)) (width 0.2))
    ))
  (pad 1 smd custom (at -4.57 0) (size 1.15 1.15) (layers F.Cu F.Paste F.Mask)
    (options (clearance outline) (anchor rect))
    (primitives
      (gr_poly (pts
         (xy 0.57 0.5) (xy -2.33 0.5) (xy -2.33 -0.5) (xy 0.57 -0.5)) (width 0.2))
    ))
  (pad 10 smd custom (at -4.57 2.29) (size 1.15 1.15) (layers F.Cu F.Paste F.Mask)
    (options (clearance outline) (anchor rect))
    (primitives
      (gr_poly (pts
         (xy 0.57 0.51) (xy -2.33 0.51) (xy -2.33 -0.49) (xy 0.57 -0.49)) (width 0.2))
    ))
  (pad 9 smd custom (at -4.57 4.57) (size 1.15 1.15) (layers F.Cu F.Paste F.Mask)
    (options (clearance outline) (anchor rect))
    (primitives
      (gr_poly (pts
         (xy 0.57 0.5) (xy -2.33 0.5) (xy -2.33 -0.5) (xy 0.57 -0.5)) (width 0.2))
    ))
  (pad 8 smd custom (at -2.29 4.57) (size 1.15 1.15) (layers F.Cu F.Paste F.Mask)
    (options (clearance outline) (anchor rect))
    (primitives
      (gr_poly (pts
         (xy 0.5 -0.57) (xy 0.5 2.33) (xy -0.5 2.33) (xy -0.5 -0.57)) (width 0.2))
    ))
  (pad 7 smd custom (at 0 4.57) (size 1.15 1.15) (layers F.Cu F.Paste F.Mask)
    (options (clearance outline) (anchor rect))
    (primitives
      (gr_poly (pts
         (xy 0.5 -0.57) (xy 0.5 2.33) (xy -0.5 2.33) (xy -0.5 -0.57)) (width 0.2))
    ))
  (pad 12 smd custom (at 2.29 4.57) (size 1.15 1.15) (layers F.Cu F.Paste F.Mask)
    (options (clearance outline) (anchor rect))
    (primitives
      (gr_poly (pts
         (xy 0.5 -0.57) (xy 0.5 2.33) (xy -0.5 2.33) (xy -0.5 -0.57)) (width 0.2))
    ))
  (pad 6 smd custom (at 4.57 4.57) (size 1.15 1.15) (layers F.Cu F.Paste F.Mask)
    (options (clearance outline) (anchor rect))
    (primitives
      (gr_poly (pts
         (xy -0.57 -0.5) (xy 2.33 -0.5) (xy 2.33 0.5) (xy -0.57 0.5)) (width 0.2))
    ))
  (pad 11 smd custom (at 4.57 2.29) (size 1.15 1.15) (layers F.Cu F.Paste F.Mask)
    (options (clearance outline) (anchor rect))
    (primitives
      (gr_poly (pts
         (xy -0.57 -0.5) (xy 2.33 -0.5) (xy 2.33 0.5) (xy -0.57 0.5)) (width 0.2))
    ))
  (pad 5 smd custom (at 4.57 0) (size 1.15 1.15) (layers F.Cu F.Paste F.Mask)
    (options (clearance outline) (anchor rect))
    (primitives
      (gr_poly (pts
         (xy -0.56 -0.5) (xy 2.33 -0.5) (xy 2.33 0.5) (xy -0.56 0.5)) (width 0.2))
    ))
  (pad 4 smd custom (at 4.57 -3.43) (size 1.9 1.9) (layers F.Cu F.Paste F.Mask)
    (options (clearance outline) (anchor rect))
    (primitives
      (gr_poly (pts
         (xy 0.93 -2.07) (xy 0.93 -1.67) (xy 2.33 -1.67) (xy 2.33 -0.67) (xy 0.93 -0.67)
         (xy 0.93 2.03) (xy -0.87 2.03) (xy -0.87 -2.07)) (width 0.2))
    ))
  (pad 3 smd custom (at 1.14 -4.57) (size 4.2 1.9) (layers F.Cu F.Paste F.Mask)
    (options (clearance outline) (anchor rect))
    (primitives
      (gr_poly (pts
         (xy -1.64 0.57) (xy -1.64 -2.33) (xy -0.64 -2.33) (xy -0.64 0.57)) (width 0.2))
      (gr_poly (pts
         (xy 0.66 0.57) (xy 0.66 -2.33) (xy 1.66 -2.33) (xy 1.66 0.57)) (width 0.2))
    ))
  (model ${KICAD_RV_LIB}/rv_packages3d/Converter_DCDC.3dshapes/OKL-T6-W12.STEP
    (at (xyz 0 0 0))
    (scale (xyz 1 1 1))
    (rotate (xyz -90 0 0))
  )
)
