(module TDK_CCG_25.4x25.4mm (layer F.Cu) (tedit 5CCF1362)
  (descr https://product.tdk.com/en/search/power/switching-power/dc-dc-converter/info?part_no=CCG30-24-12S)
  (tags "TDK CCG converter regulator")
  (fp_text reference REF** (at -10.7 -15.2) (layer F.SilkS)
    (effects (font (size 1 1) (thickness 0.15)))
  )
  (fp_text value TDK_CCG_25.4x25.4mm (at 0 15) (layer F.Fab)
    (effects (font (size 1 1) (thickness 0.15)))
  )
  (fp_line (start -13 -15.2) (end -13.3 -15.8) (layer F.SilkS) (width 0.12))
  (fp_line (start -13.3 -15.8) (end -13.6 -15.2) (layer F.SilkS) (width 0.12))
  (fp_line (start -13.6 -15.2) (end -13 -15.2) (layer F.SilkS) (width 0.12))
  (fp_line (start -13 -13) (end 13 -13) (layer F.SilkS) (width 0.12))
  (fp_line (start 13 -13) (end 13 13) (layer F.SilkS) (width 0.12))
  (fp_line (start 13 13) (end -13 13) (layer F.SilkS) (width 0.12))
  (fp_line (start -13 13) (end -13 -13) (layer F.SilkS) (width 0.12))
  (fp_line (start 14 -14) (end 14 14) (layer F.CrtYd) (width 0.05))
  (fp_line (start 14 14) (end -14 14) (layer F.CrtYd) (width 0.05))
  (fp_line (start -14 14) (end -14 -14) (layer F.CrtYd) (width 0.05))
  (fp_line (start -12.7 -12.7) (end -12.7 12.7) (layer F.Fab) (width 0.1))
  (fp_line (start 12.7 -12.7) (end 12.7 12.7) (layer F.Fab) (width 0.1))
  (fp_line (start -14 -14) (end 14 -14) (layer F.CrtYd) (width 0.05))
  (fp_line (start -12.7 -12.7) (end 12.7 -12.7) (layer F.Fab) (width 0.1))
  (fp_line (start 12.7 12.7) (end -12.7 12.7) (layer F.Fab) (width 0.1))
  (fp_text user %R (at 0 0) (layer F.Fab)
    (effects (font (size 1 1) (thickness 0.15)))
  )
  (pad 6 thru_hole circle (at 10.16 -10.16) (size 3 3) (drill 1.4) (layers *.Cu *.Mask))
  (pad 5 thru_hole circle (at 10.16 0) (size 3 3) (drill 1.4) (layers *.Cu *.Mask))
  (pad 4 thru_hole circle (at 10.16 10.16) (size 3 3) (drill 1.4) (layers *.Cu *.Mask))
  (pad 3 thru_hole circle (at -10.16 -10.16) (size 3 3) (drill 1.4) (layers *.Cu *.Mask))
  (pad 2 thru_hole circle (at -10.16 -2.54) (size 3 3) (drill 1.4) (layers *.Cu *.Mask))
  (pad 1 thru_hole circle (at -10.16 2.54) (size 3 3) (drill 1.4) (layers *.Cu *.Mask))
)
