(kicad_symbol_lib (version 20220914) (generator kicad_symbol_editor)
  (symbol "DRV8243P" (pin_names (offset 0.381)) (in_bom yes) (on_board yes)
    (property "Reference" "U" (at -8.89 19.05 0)
      (effects (font (size 1.27 1.27)))
    )
    (property "Value" "DRV8243P" (at 6.35 19.05 0)
      (effects (font (size 1.27 1.27)))
    )
    (property "Footprint" "RV_Package_SO:HVSSOP-28-1EP_3x7.1mm_P0.5mm_EP1.65x4.94mm" (at 3.81 -31.75 0)
      (effects (font (size 1.27 1.27)) hide)
    )
    (property "Datasheet" "https://www.ti.com/lit/ds/symlink/drv8243-q1.pdf" (at 2.54 -19.05 0)
      (effects (font (size 1.27 1.27)) (justify left) hide)
    )
    (property "ki_keywords" "H-Bridge, Motor, Driver" (at 0 0 0)
      (effects (font (size 1.27 1.27)) hide)
    )
    (property "ki_description" "DRV8243 H-Bridge with Integrated Current Sense and Diagnostics, 4.5-35V, 12A Peak" (at 0 0 0)
      (effects (font (size 1.27 1.27)) hide)
    )
    (property "ki_fp_filters" "HVSSOP*28*3x7.1mm*P0.5mm*EP" (at 0 0 0)
      (effects (font (size 1.27 1.27)) hide)
    )
    (symbol "DRV8243P_0_1"
      (rectangle (start -10.16 17.78) (end 10.16 -17.78)
        (stroke (width 0.254) (type default))
        (fill (type background))
      )
    )
    (symbol "DRV8243P_1_1"
      (pin input line (at -12.7 7.62 0) (length 2.54)
        (name "SCLK" (effects (font (size 1.27 1.27))))
        (number "1" (effects (font (size 1.27 1.27))))
      )
      (pin power_out line (at 12.7 15.24 180) (length 2.54) hide
        (name "OUT1" (effects (font (size 1.27 1.27))))
        (number "10" (effects (font (size 1.27 1.27))))
      )
      (pin power_out line (at 12.7 15.24 180) (length 2.54) hide
        (name "OUT1" (effects (font (size 1.27 1.27))))
        (number "11" (effects (font (size 1.27 1.27))))
      )
      (pin power_in line (at -1.27 -20.32 90) (length 2.54)
        (name "GND" (effects (font (size 1.27 1.27))))
        (number "12" (effects (font (size 1.27 1.27))))
      )
      (pin power_in line (at -1.27 -20.32 90) (length 2.54) hide
        (name "GND" (effects (font (size 1.27 1.27))))
        (number "13" (effects (font (size 1.27 1.27))))
      )
      (pin power_in line (at -1.27 -20.32 90) (length 2.54) hide
        (name "GND" (effects (font (size 1.27 1.27))))
        (number "14" (effects (font (size 1.27 1.27))))
      )
      (pin power_in line (at -1.27 -20.32 90) (length 2.54) hide
        (name "GND" (effects (font (size 1.27 1.27))))
        (number "15" (effects (font (size 1.27 1.27))))
      )
      (pin power_in line (at -1.27 -20.32 90) (length 2.54) hide
        (name "GND" (effects (font (size 1.27 1.27))))
        (number "16" (effects (font (size 1.27 1.27))))
      )
      (pin power_in line (at -1.27 -20.32 90) (length 2.54) hide
        (name "GND" (effects (font (size 1.27 1.27))))
        (number "17" (effects (font (size 1.27 1.27))))
      )
      (pin power_out line (at 12.7 10.16 180) (length 2.54)
        (name "OUT2" (effects (font (size 1.27 1.27))))
        (number "18" (effects (font (size 1.27 1.27))))
      )
      (pin power_out line (at 12.7 10.16 180) (length 2.54) hide
        (name "OUT2" (effects (font (size 1.27 1.27))))
        (number "19" (effects (font (size 1.27 1.27))))
      )
      (pin input line (at -12.7 10.16 0) (length 2.54)
        (name "nSCS" (effects (font (size 1.27 1.27))))
        (number "2" (effects (font (size 1.27 1.27))))
      )
      (pin power_out line (at 12.7 10.16 180) (length 2.54) hide
        (name "OUT2" (effects (font (size 1.27 1.27))))
        (number "20" (effects (font (size 1.27 1.27))))
      )
      (pin power_in line (at 0 20.32 270) (length 2.54) hide
        (name "VM" (effects (font (size 1.27 1.27))))
        (number "21" (effects (font (size 1.27 1.27))))
      )
      (pin power_in line (at 0 20.32 270) (length 2.54) hide
        (name "VM" (effects (font (size 1.27 1.27))))
        (number "22" (effects (font (size 1.27 1.27))))
      )
      (pin power_in line (at 0 20.32 270) (length 2.54) hide
        (name "VM" (effects (font (size 1.27 1.27))))
        (number "23" (effects (font (size 1.27 1.27))))
      )
      (pin power_in line (at -12.7 15.24 0) (length 2.54)
        (name "VDD" (effects (font (size 1.27 1.27))))
        (number "24" (effects (font (size 1.27 1.27))))
      )
      (pin output line (at -12.7 -15.24 0) (length 2.54)
        (name "IPROPI" (effects (font (size 1.27 1.27))))
        (number "25" (effects (font (size 1.27 1.27))))
      )
      (pin open_collector line (at -12.7 -12.7 0) (length 2.54)
        (name "nFAULT" (effects (font (size 1.27 1.27))))
        (number "26" (effects (font (size 1.27 1.27))))
      )
      (pin output line (at -12.7 2.54 0) (length 2.54)
        (name "SDO" (effects (font (size 1.27 1.27))))
        (number "27" (effects (font (size 1.27 1.27))))
      )
      (pin input line (at -12.7 5.08 0) (length 2.54)
        (name "SDI" (effects (font (size 1.27 1.27))))
        (number "28" (effects (font (size 1.27 1.27))))
      )
      (pin power_in line (at 1.27 -20.32 90) (length 2.54)
        (name "PPAD" (effects (font (size 1.27 1.27))))
        (number "29" (effects (font (size 1.27 1.27))))
      )
      (pin input line (at -12.7 -7.62 0) (length 2.54)
        (name "PH/IN2" (effects (font (size 1.27 1.27))))
        (number "3" (effects (font (size 1.27 1.27))))
      )
      (pin input line (at -12.7 -5.08 0) (length 2.54)
        (name "EN/IN1" (effects (font (size 1.27 1.27))))
        (number "4" (effects (font (size 1.27 1.27))))
      )
      (pin input line (at -12.7 -2.54 0) (length 2.54)
        (name "DRVOFF" (effects (font (size 1.27 1.27))))
        (number "5" (effects (font (size 1.27 1.27))))
      )
      (pin power_in line (at 0 20.32 270) (length 2.54)
        (name "VM" (effects (font (size 1.27 1.27))))
        (number "6" (effects (font (size 1.27 1.27))))
      )
      (pin power_in line (at 0 20.32 270) (length 2.54) hide
        (name "VM" (effects (font (size 1.27 1.27))))
        (number "7" (effects (font (size 1.27 1.27))))
      )
      (pin power_in line (at 0 20.32 270) (length 2.54) hide
        (name "VM" (effects (font (size 1.27 1.27))))
        (number "8" (effects (font (size 1.27 1.27))))
      )
      (pin power_out line (at 12.7 15.24 180) (length 2.54)
        (name "OUT1" (effects (font (size 1.27 1.27))))
        (number "9" (effects (font (size 1.27 1.27))))
      )
    )
  )
  (symbol "DRV8880" (pin_names (offset 0.381)) (in_bom yes) (on_board yes)
    (property "Reference" "U" (at -8.89 34.29 0)
      (effects (font (size 1.27 1.27)))
    )
    (property "Value" "DRV8880" (at 6.35 34.29 0)
      (effects (font (size 1.27 1.27)))
    )
    (property "Footprint" "" (at 3.81 -19.05 0)
      (effects (font (size 1.27 1.27)) hide)
    )
    (property "Datasheet" "" (at 0 16.51 0)
      (effects (font (size 1.27 1.27)) hide)
    )
    (property "ki_fp_filters" "HTSSOP*4.4x9.7mm*Pitch0.65mm*" (at 0 0 0)
      (effects (font (size 1.27 1.27)) hide)
    )
    (symbol "DRV8880_0_1"
      (rectangle (start -10.16 33.02) (end 10.16 -30.48)
        (stroke (width 0.254) (type default))
        (fill (type background))
      )
    )
    (symbol "DRV8880_1_1"
      (pin passive line (at -12.7 20.32 0) (length 2.54)
        (name "CPL" (effects (font (size 1.27 1.27))))
        (number "1" (effects (font (size 1.27 1.27))))
      )
      (pin bidirectional line (at 12.7 7.62 180) (length 2.54)
        (name "BOUT1" (effects (font (size 1.27 1.27))))
        (number "10" (effects (font (size 1.27 1.27))))
      )
      (pin power_in line (at -12.7 27.94 0) (length 2.54)
        (name "VM" (effects (font (size 1.27 1.27))))
        (number "11" (effects (font (size 1.27 1.27))))
      )
      (pin power_in line (at 12.7 -22.86 180) (length 2.54)
        (name "GND" (effects (font (size 1.27 1.27))))
        (number "12" (effects (font (size 1.27 1.27))))
      )
      (pin input line (at -12.7 -10.16 0) (length 2.54)
        (name "ATE" (effects (font (size 1.27 1.27))))
        (number "13" (effects (font (size 1.27 1.27))))
      )
      (pin input line (at -12.7 10.16 0) (length 2.54)
        (name "VREF" (effects (font (size 1.27 1.27))))
        (number "14" (effects (font (size 1.27 1.27))))
      )
      (pin power_out line (at -12.7 15.24 0) (length 2.54)
        (name "V3P3" (effects (font (size 1.27 1.27))))
        (number "15" (effects (font (size 1.27 1.27))))
      )
      (pin input line (at -12.7 -27.94 0) (length 2.54)
        (name "TOFF" (effects (font (size 1.27 1.27))))
        (number "16" (effects (font (size 1.27 1.27))))
      )
      (pin input line (at -12.7 -2.54 0) (length 2.54)
        (name "~{SLEEP}" (effects (font (size 1.27 1.27))))
        (number "17" (effects (font (size 1.27 1.27))))
      )
      (pin output line (at -12.7 -5.08 0) (length 2.54)
        (name "~{FAULT}" (effects (font (size 1.27 1.27))))
        (number "18" (effects (font (size 1.27 1.27))))
      )
      (pin input line (at -12.7 -25.4 0) (length 2.54)
        (name "DECAY1" (effects (font (size 1.27 1.27))))
        (number "19" (effects (font (size 1.27 1.27))))
      )
      (pin passive line (at -12.7 17.78 0) (length 2.54)
        (name "CPH" (effects (font (size 1.27 1.27))))
        (number "2" (effects (font (size 1.27 1.27))))
      )
      (pin input line (at -12.7 -22.86 0) (length 2.54)
        (name "DECAY0" (effects (font (size 1.27 1.27))))
        (number "20" (effects (font (size 1.27 1.27))))
      )
      (pin input line (at -12.7 0 0) (length 2.54)
        (name "ENABLE" (effects (font (size 1.27 1.27))))
        (number "21" (effects (font (size 1.27 1.27))))
      )
      (pin input line (at -12.7 2.54 0) (length 2.54)
        (name "DIR" (effects (font (size 1.27 1.27))))
        (number "22" (effects (font (size 1.27 1.27))))
      )
      (pin input line (at -12.7 5.08 0) (length 2.54)
        (name "STEP" (effects (font (size 1.27 1.27))))
        (number "23" (effects (font (size 1.27 1.27))))
      )
      (pin input line (at -12.7 -20.32 0) (length 2.54)
        (name "M1" (effects (font (size 1.27 1.27))))
        (number "24" (effects (font (size 1.27 1.27))))
      )
      (pin input line (at -12.7 -17.78 0) (length 2.54)
        (name "M0" (effects (font (size 1.27 1.27))))
        (number "25" (effects (font (size 1.27 1.27))))
      )
      (pin input line (at -12.7 -15.24 0) (length 2.54)
        (name "TRQ1" (effects (font (size 1.27 1.27))))
        (number "26" (effects (font (size 1.27 1.27))))
      )
      (pin input line (at -12.7 -12.7 0) (length 2.54)
        (name "TRQ0" (effects (font (size 1.27 1.27))))
        (number "27" (effects (font (size 1.27 1.27))))
      )
      (pin passive line (at 12.7 -25.4 180) (length 2.54)
        (name "GND" (effects (font (size 1.27 1.27))))
        (number "28" (effects (font (size 1.27 1.27))))
      )
      (pin passive line (at 12.7 -27.94 180) (length 2.54)
        (name "PAD" (effects (font (size 1.27 1.27))))
        (number "29" (effects (font (size 1.27 1.27))))
      )
      (pin power_out line (at -12.7 22.86 0) (length 2.54)
        (name "VCP" (effects (font (size 1.27 1.27))))
        (number "3" (effects (font (size 1.27 1.27))))
      )
      (pin power_in line (at -12.7 30.48 0) (length 2.54)
        (name "VM" (effects (font (size 1.27 1.27))))
        (number "4" (effects (font (size 1.27 1.27))))
      )
      (pin bidirectional line (at 12.7 27.94 180) (length 2.54)
        (name "AOUT1" (effects (font (size 1.27 1.27))))
        (number "5" (effects (font (size 1.27 1.27))))
      )
      (pin output line (at 12.7 17.78 180) (length 2.54)
        (name "AISEN" (effects (font (size 1.27 1.27))))
        (number "6" (effects (font (size 1.27 1.27))))
      )
      (pin bidirectional line (at 12.7 22.86 180) (length 2.54)
        (name "AOUT2" (effects (font (size 1.27 1.27))))
        (number "7" (effects (font (size 1.27 1.27))))
      )
      (pin bidirectional line (at 12.7 2.54 180) (length 2.54)
        (name "BOUT2" (effects (font (size 1.27 1.27))))
        (number "8" (effects (font (size 1.27 1.27))))
      )
      (pin output line (at 12.7 -2.54 180) (length 2.54)
        (name "BISEN" (effects (font (size 1.27 1.27))))
        (number "9" (effects (font (size 1.27 1.27))))
      )
    )
  )
  (symbol "LV8548MC-AH" (pin_names (offset 1.016)) (in_bom yes) (on_board yes)
    (property "Reference" "U" (at -7.62 8.89 0)
      (effects (font (size 1.27 1.27)))
    )
    (property "Value" "LV8548MC-AH" (at 0 -8.89 0)
      (effects (font (size 1.27 1.27)))
    )
    (property "Footprint" "RV_Driver_Motor:LV8548MC-AH" (at 0 -11.43 0)
      (effects (font (size 1.27 1.27)) hide)
    )
    (property "Datasheet" "https://www.onsemi.com/pub/Collateral/LV8548MC-D.PDF" (at 0 0 0)
      (effects (font (size 1.27 1.27)) hide)
    )
    (property "Manofacturer" "ON Semiconductor" (at 0 -13.97 0)
      (effects (font (size 1.27 1.27)) hide)
    )
    (property "ManofacturerPN" "LV8548MC-AH" (at 0 -16.51 0)
      (effects (font (size 1.27 1.27)) hide)
    )
    (property "ki_keywords" "Bipolar Stepper Motor Driver H-bridge" (at 0 0 0)
      (effects (font (size 1.27 1.27)) hide)
    )
    (property "ki_description" "Bipolar Stepper Motor Driver 12V 1A, SOIC-10" (at 0 0 0)
      (effects (font (size 1.27 1.27)) hide)
    )
    (symbol "LV8548MC-AH_1_1"
      (rectangle (start -7.62 7.62) (end 7.62 -7.62)
        (stroke (width 0.254) (type default))
        (fill (type background))
      )
      (pin power_in line (at -12.7 5.08 0) (length 5.08)
        (name "Vcc" (effects (font (size 1.27 1.27))))
        (number "1" (effects (font (size 1.27 1.27))))
      )
      (pin power_out line (at 12.7 5.08 180) (length 5.08)
        (name "OUT1" (effects (font (size 1.27 1.27))))
        (number "10" (effects (font (size 1.27 1.27))))
      )
      (pin input line (at -12.7 2.54 0) (length 5.08)
        (name "IN1" (effects (font (size 1.27 1.27))))
        (number "2" (effects (font (size 1.27 1.27))))
      )
      (pin input line (at -12.7 0 0) (length 5.08)
        (name "IN2" (effects (font (size 1.27 1.27))))
        (number "3" (effects (font (size 1.27 1.27))))
      )
      (pin input line (at -12.7 -2.54 0) (length 5.08)
        (name "IN3" (effects (font (size 1.27 1.27))))
        (number "4" (effects (font (size 1.27 1.27))))
      )
      (pin input line (at -12.7 -5.08 0) (length 5.08)
        (name "IN4" (effects (font (size 1.27 1.27))))
        (number "5" (effects (font (size 1.27 1.27))))
      )
      (pin power_in line (at 12.7 -5.08 180) (length 5.08)
        (name "GND" (effects (font (size 1.27 1.27))))
        (number "6" (effects (font (size 1.27 1.27))))
      )
      (pin power_out line (at 12.7 -2.54 180) (length 5.08)
        (name "OUT4" (effects (font (size 1.27 1.27))))
        (number "7" (effects (font (size 1.27 1.27))))
      )
      (pin power_out line (at 12.7 0 180) (length 5.08)
        (name "OUT3" (effects (font (size 1.27 1.27))))
        (number "8" (effects (font (size 1.27 1.27))))
      )
      (pin power_out line (at 12.7 2.54 180) (length 5.08)
        (name "OUT2" (effects (font (size 1.27 1.27))))
        (number "9" (effects (font (size 1.27 1.27))))
      )
    )
  )
  (symbol "LV8549MC-AH" (pin_names (offset 1.016)) (in_bom yes) (on_board yes)
    (property "Reference" "U" (at -6.35 13.97 0)
      (effects (font (size 1.27 1.27)))
    )
    (property "Value" "LV8549MC-AH" (at -7.62 -3.81 0)
      (effects (font (size 1.27 1.27)) (justify left))
    )
    (property "Footprint" "Package_SO:SOIC-10_3.9x4.9mm_P1.27mm" (at -7.62 -6.35 0)
      (effects (font (size 1.27 1.27)) (justify left) hide)
    )
    (property "Datasheet" "https://www.onsemi.com/pub/Collateral/ENA2039-D.PDF" (at -3.81 13.97 0)
      (effects (font (size 1.27 1.27)) hide)
    )
    (property "ki_keywords" "Bipolar Stepper Motor Driver H-bridge" (at 0 0 0)
      (effects (font (size 1.27 1.27)) hide)
    )
    (property "ki_description" "Bipolar Stepper Motor Driver 16V 1A, SOIC-10" (at 0 0 0)
      (effects (font (size 1.27 1.27)) hide)
    )
    (property "ki_fp_filters" "SOIC-10*3.9x4.9mm*P1.27mm*" (at 0 0 0)
      (effects (font (size 1.27 1.27)) hide)
    )
    (symbol "LV8549MC-AH_0_1"
      (rectangle (start -7.62 12.7) (end 7.62 -2.54)
        (stroke (width 0.254) (type default))
        (fill (type background))
      )
    )
    (symbol "LV8549MC-AH_1_1"
      (pin power_in line (at -12.7 10.16 0) (length 5.08)
        (name "Vcc" (effects (font (size 1.27 1.27))))
        (number "1" (effects (font (size 1.27 1.27))))
      )
      (pin power_out line (at 12.7 10.16 180) (length 5.08)
        (name "OUT1" (effects (font (size 1.27 1.27))))
        (number "10" (effects (font (size 1.27 1.27))))
      )
      (pin input line (at -12.7 7.62 0) (length 5.08)
        (name "ENA" (effects (font (size 1.27 1.27))))
        (number "2" (effects (font (size 1.27 1.27))))
      )
      (pin input line (at -12.7 5.08 0) (length 5.08)
        (name "IN1" (effects (font (size 1.27 1.27))))
        (number "3" (effects (font (size 1.27 1.27))))
      )
      (pin input line (at -12.7 2.54 0) (length 5.08)
        (name "IN2" (effects (font (size 1.27 1.27))))
        (number "4" (effects (font (size 1.27 1.27))))
      )
      (pin no_connect line (at -12.7 0 0) (length 5.08)
        (name "NC" (effects (font (size 1.27 1.27))))
        (number "5" (effects (font (size 1.27 1.27))))
      )
      (pin power_in line (at 12.7 0 180) (length 5.08)
        (name "GND" (effects (font (size 1.27 1.27))))
        (number "6" (effects (font (size 1.27 1.27))))
      )
      (pin power_out line (at 12.7 2.54 180) (length 5.08)
        (name "OUT4" (effects (font (size 1.27 1.27))))
        (number "7" (effects (font (size 1.27 1.27))))
      )
      (pin power_out line (at 12.7 5.08 180) (length 5.08)
        (name "OUT3" (effects (font (size 1.27 1.27))))
        (number "8" (effects (font (size 1.27 1.27))))
      )
      (pin power_out line (at 12.7 7.62 180) (length 5.08)
        (name "OUT2" (effects (font (size 1.27 1.27))))
        (number "9" (effects (font (size 1.27 1.27))))
      )
    )
  )
  (symbol "VNH7100BAS" (pin_names (offset 0.381)) (in_bom yes) (on_board yes)
    (property "Reference" "U" (at -8.89 15.24 0)
      (effects (font (size 1.27 1.27)))
    )
    (property "Value" "VNH7100BAS" (at 6.35 15.24 0)
      (effects (font (size 1.27 1.27)))
    )
    (property "Footprint" "" (at 16.51 -16.51 0)
      (effects (font (size 1.27 1.27)) hide)
    )
    (property "Datasheet" "http://www.st.com/content/ccc/resource/technical/document/datasheet/group3/28/a2/d7/89/b7/da/4f/5c/DM00314832/files/DM00314832.pdf/jcr:content/translations/en.DM00314832.pdf" (at 0 -2.54 0)
      (effects (font (size 1.27 1.27)) hide)
    )
    (property "ki_keywords" "dc motor driver h bridge" (at 0 0 0)
      (effects (font (size 1.27 1.27)) hide)
    )
    (property "ki_description" "DC motor driver, 38V, 12A, SOIC-16" (at 0 0 0)
      (effects (font (size 1.27 1.27)) hide)
    )
    (property "ki_fp_filters" "SOIC*3.9x9.9mm*Pitch1.27mm*" (at 0 0 0)
      (effects (font (size 1.27 1.27)) hide)
    )
    (symbol "VNH7100BAS_0_1"
      (rectangle (start -10.16 13.97) (end 10.16 -13.97)
        (stroke (width 0.254) (type default))
        (fill (type background))
      )
    )
    (symbol "VNH7100BAS_1_1"
      (pin power_in line (at 12.7 -3.81 180) (length 2.54)
        (name "GND_A" (effects (font (size 1.27 1.27))))
        (number "1" (effects (font (size 1.27 1.27))))
      )
      (pin power_out line (at 12.7 1.27 180) (length 2.54)
        (name "OUT_B" (effects (font (size 1.27 1.27))))
        (number "10" (effects (font (size 1.27 1.27))))
      )
      (pin input line (at -12.7 -3.81 0) (length 2.54)
        (name "PWM" (effects (font (size 1.27 1.27))))
        (number "11" (effects (font (size 1.27 1.27))))
      )
      (pin power_in line (at -12.7 6.35 0) (length 2.54)
        (name "VCC" (effects (font (size 1.27 1.27))))
        (number "12" (effects (font (size 1.27 1.27))))
      )
      (pin output line (at -12.7 -6.35 0) (length 2.54)
        (name "CS" (effects (font (size 1.27 1.27))))
        (number "13" (effects (font (size 1.27 1.27))))
      )
      (pin input line (at -12.7 -11.43 0) (length 2.54)
        (name "SEL_0" (effects (font (size 1.27 1.27))))
        (number "14" (effects (font (size 1.27 1.27))))
      )
      (pin power_out line (at 12.7 8.89 180) (length 2.54)
        (name "OUT_A" (effects (font (size 1.27 1.27))))
        (number "15" (effects (font (size 1.27 1.27))))
      )
      (pin power_in line (at 12.7 -6.35 180) (length 2.54)
        (name "GND_A" (effects (font (size 1.27 1.27))))
        (number "16" (effects (font (size 1.27 1.27))))
      )
      (pin power_out line (at 12.7 11.43 180) (length 2.54)
        (name "OUT_A" (effects (font (size 1.27 1.27))))
        (number "2" (effects (font (size 1.27 1.27))))
      )
      (pin input line (at -12.7 1.27 0) (length 2.54)
        (name "IN_A" (effects (font (size 1.27 1.27))))
        (number "3" (effects (font (size 1.27 1.27))))
      )
      (pin power_in line (at -12.7 11.43 0) (length 2.54)
        (name "VCC" (effects (font (size 1.27 1.27))))
        (number "4" (effects (font (size 1.27 1.27))))
      )
      (pin power_in line (at -12.7 8.89 0) (length 2.54)
        (name "VCC" (effects (font (size 1.27 1.27))))
        (number "5" (effects (font (size 1.27 1.27))))
      )
      (pin input line (at -12.7 -1.27 0) (length 2.54)
        (name "IN_B" (effects (font (size 1.27 1.27))))
        (number "6" (effects (font (size 1.27 1.27))))
      )
      (pin power_out line (at 12.7 3.81 180) (length 2.54)
        (name "OUT_B" (effects (font (size 1.27 1.27))))
        (number "7" (effects (font (size 1.27 1.27))))
      )
      (pin power_in line (at 12.7 -8.89 180) (length 2.54)
        (name "GND_B" (effects (font (size 1.27 1.27))))
        (number "8" (effects (font (size 1.27 1.27))))
      )
      (pin power_in line (at 12.7 -11.43 180) (length 2.54)
        (name "GND_B" (effects (font (size 1.27 1.27))))
        (number "9" (effects (font (size 1.27 1.27))))
      )
    )
  )
)
