(module PhoenixContact_PTA_10x3.5mm (layer F.Cu) (tedit 5F54BE9F)
  (descr "Phoenix Contact PN: 1989036, Current: 17.5A, Voltage: 200V, Connection method: Screw, Terminals: 10, Pitch: 3.5mm, Wire size: 0.14-1.5mm2")
  (tags "phoenix_contact connector terminal_block")
  (fp_text reference REF** (at -14.7 9.8) (layer F.SilkS)
    (effects (font (size 1 1) (thickness 0.15)))
  )
  (fp_text value PhoenixContact_PTA_10x3.5mm (at 0 10) (layer F.Fab)
    (effects (font (size 1 1) (thickness 0.15)))
  )
  (fp_line (start 17.5 -2.4) (end 17.5 8.8) (layer F.Fab) (width 0.1))
  (fp_line (start -17.5 -2.4) (end -17.5 8.8) (layer F.Fab) (width 0.1))
  (fp_line (start -18 9.3) (end -18 -2.9) (layer F.CrtYd) (width 0.05))
  (fp_line (start 18 -2.9) (end 18 9.3) (layer F.CrtYd) (width 0.05))
  (fp_line (start -17.6 8.9) (end -17.6 -2.5) (layer F.SilkS) (width 0.12))
  (fp_line (start 17.6 -2.5) (end 17.6 8.9) (layer F.SilkS) (width 0.12))
  (fp_line (start -17.6 9.8) (end -17 9.8) (layer F.SilkS) (width 0.12))
  (fp_line (start -17.3 9.2) (end -17.6 9.8) (layer F.SilkS) (width 0.12))
  (fp_line (start -17 9.8) (end -17.3 9.2) (layer F.SilkS) (width 0.12))
  (fp_line (start -17.5 -2.4) (end 17.5 -2.4) (layer F.Fab) (width 0.1))
  (fp_line (start 17.5 8.8) (end -17.5 8.8) (layer F.Fab) (width 0.1))
  (fp_line (start -17.6 -2.5) (end 17.6 -2.5) (layer F.SilkS) (width 0.12))
  (fp_line (start 17.6 8.9) (end -17.6 8.9) (layer F.SilkS) (width 0.12))
  (fp_line (start -18 -2.9) (end 18 -2.9) (layer F.CrtYd) (width 0.05))
  (fp_line (start 18 9.3) (end -18 9.3) (layer F.CrtYd) (width 0.05))
  (fp_text user %R (at 0 3.2) (layer F.Fab)
    (effects (font (size 1 1) (thickness 0.15)))
  )
  (pad 2 thru_hole oval (at -12.25 0) (size 1.8 3.6) (drill 1.2) (layers *.Cu *.Mask))
  (pad 1 thru_hole rect (at -15.75 0) (size 1.8 3.6) (drill 1.2) (layers *.Cu *.Mask))
  (pad 3 thru_hole oval (at -8.75 0) (size 1.8 3.6) (drill 1.2) (layers *.Cu *.Mask))
  (pad 4 thru_hole oval (at -5.25 0) (size 1.8 3.6) (drill 1.2) (layers *.Cu *.Mask))
  (pad 5 thru_hole oval (at -1.75 0) (size 1.8 3.6) (drill 1.2) (layers *.Cu *.Mask))
  (pad 6 thru_hole oval (at 1.75 0) (size 1.8 3.6) (drill 1.2) (layers *.Cu *.Mask))
  (pad 7 thru_hole oval (at 5.25 0) (size 1.8 3.6) (drill 1.2) (layers *.Cu *.Mask))
  (pad 8 thru_hole oval (at 8.75 0) (size 1.8 3.6) (drill 1.2) (layers *.Cu *.Mask))
  (pad 9 thru_hole oval (at 12.25 0) (size 1.8 3.6) (drill 1.2) (layers *.Cu *.Mask))
  (pad 10 thru_hole oval (at 15.75 0) (size 1.8 3.6) (drill 1.2) (layers *.Cu *.Mask))
  (model ${KICAD_RV_LIB}/rv_packages3d/TerminalBlock_Phoenix.3dshapes/PhoenixContact_PTA_10x3.5mm.step
    (at (xyz 0 0 0))
    (scale (xyz 1 1 1))
    (rotate (xyz 0 0 0))
  )
)
